Date/Time,Word Count,en,ru
2019.03.08-13.59.44,29,29,0
2019.03.08-14.57.20,5,5,0
2019.03.08-15.02.04,3,3,0
2019.03.08-15.03.19,41,41,0
2019.03.08-15.13.29,41,41,41
2019.04.03-10.38.04,69,69,41
2019.04.03-10.41.57,69,69,69
2019.04.04-19.03.58,84,84,69
2019.04.04-19.38.14,84,84,84
